LAB9/SystemC-LAB2/counter.vcd
$date
     Mar 30, 2026       12:00:30
$end

$version
 SystemC 3.0.0-Accellera --- Oct  7 2024 17:21:37
$end

$timescale
     1 ps
$end

$scope module SystemC $end
$var wire    1  aaaaa  clock       $end
$var wire    1  aaaab  reset       $end
$var wire    3  aaaac  count [2:0]  $end
$upscope $end
$enddefinitions  $end

$comment
All initial values are dumped below at time 1e-09 sec = 1000 timescale units.
$end

$dumpvars
0aaaaa
0aaaab
b1 aaaac
$end

#2000
1aaaaa
b11 aaaac

#3000
0aaaaa

#4000
1aaaaa
b10 aaaac

#5000
0aaaaa

#6000
1aaaaa
b110 aaaac

#7000
0aaaaa

#8000
1aaaaa
b111 aaaac

#9000
0aaaaa

#10000
1aaaaa
b101 aaaac

#11000
0aaaaa
1aaaab
b0 aaaac

#12000
1aaaaa

#13000
0aaaaa

#14000
1aaaaa

#15000
0aaaaa

#16000
1aaaaa

#17000
0aaaaa

#18000
1aaaaa

#19000
0aaaaa

#20000
1aaaaa

#21000
0aaaaa

#22000
1aaaaa

#23000
0aaaaa

#24000
1aaaaa

#25000
0aaaaa

#26000
1aaaaa

#27000
0aaaaa

#28000
1aaaaa

#29000
0aaaaa

#30000
1aaaaa

#31000
0aaaaa
0aaaab
b1 aaaac

#32000
1aaaaa
b11 aaaac

#33000
0aaaaa

#34000
1aaaaa
b10 aaaac

#35000
0aaaaa

#36000
1aaaaa
b110 aaaac

#37000
0aaaaa

#38000
1aaaaa
b111 aaaac

#39000
0aaaaa

#40000
1aaaaa
b101 aaaac

#41000
0aaaaa

#42000
1aaaaa
b100 aaaac

#43000
0aaaaa

#44000
1aaaaa
b0 aaaac

#45000
0aaaaa

#46000
1aaaaa
b1 aaaac

#47000
0aaaaa

#48000
1aaaaa
b11 aaaac

#49000
0aaaaa

#50000
1aaaaa
b10 aaaac

#51000
0aaaaa

#52000
1aaaaa
b110 aaaac

#53000
0aaaaa

#54000
1aaaaa
b111 aaaac

#55000
0aaaaa

#56000
1aaaaa
b101 aaaac

#57000
0aaaaa

#58000
1aaaaa
b100 aaaac

#59000
0aaaaa

#60000
1aaaaa
b0 aaaac

#61000
0aaaaa

#62000
1aaaaa
b1 aaaac

#63000
0aaaaa

#64000
1aaaaa
b11 aaaac

#65000
0aaaaa

#66000
1aaaaa
b10 aaaac

#67000
0aaaaa

#68000
1aaaaa
b110 aaaac

#69000
0aaaaa

#70000
1aaaaa
b111 aaaac

#71000
0aaaaa

#72000
1aaaaa
b101 aaaac

#73000
0aaaaa

#74000
1aaaaa
b100 aaaac

#75000
0aaaaa

#76000
1aaaaa
b0 aaaac

#77000
0aaaaa

#78000
1aaaaa
b1 aaaac

#79000
0aaaaa

#80000
1aaaaa
b11 aaaac

#81000
0aaaaa

#82000
1aaaaa
b10 aaaac

#83000
0aaaaa

#84000
1aaaaa
b110 aaaac

#85000
0aaaaa

#86000
1aaaaa
b111 aaaac

#87000
0aaaaa

#88000
1aaaaa
b101 aaaac

#89000
0aaaaa

#90000
1aaaaa
b100 aaaac

#91000
0aaaaa

#92000
1aaaaa
b0 aaaac

#93000
0aaaaa

#94000
1aaaaa
b1 aaaac

#95000
0aaaaa

#96000
1aaaaa
b11 aaaac

#97000
0aaaaa

#98000
1aaaaa
b10 aaaac

#99000
0aaaaa

#100000
1aaaaa
b110 aaaac

#101000
0aaaaa

#102000
1aaaaa
b111 aaaac

#103000
0aaaaa

#104000
1aaaaa
b101 aaaac

#105000
0aaaaa

#106000
1aaaaa
b100 aaaac

#107000
0aaaaa

#108000
1aaaaa
b0 aaaac

#109000
0aaaaa

#110000
1aaaaa
b1 aaaac

#111000
0aaaaa

#112000
1aaaaa
b11 aaaac

#113000
0aaaaa

#114000
1aaaaa
b10 aaaac

#115000
0aaaaa

#116000
1aaaaa
b110 aaaac

#117000
0aaaaa

#118000
1aaaaa
b111 aaaac

#119000
0aaaaa

#120000
1aaaaa
b101 aaaac

#121000
0aaaaa

#122000
1aaaaa
b100 aaaac

#123000
0aaaaa

#124000
1aaaaa
b0 aaaac

#125000
0aaaaa

#126000
1aaaaa
b1 aaaac

#127000
0aaaaa

#128000
1aaaaa
b11 aaaac

#129000
0aaaaa

#130000
1aaaaa
b10 aaaac

#131000
0aaaaa

#132000
1aaaaa
b110 aaaac

#133000
0aaaaa

#134000
1aaaaa
b111 aaaac

#135000
0aaaaa

#136000
1aaaaa
b101 aaaac

#137000
0aaaaa

#138000
1aaaaa
b100 aaaac

#139000
0aaaaa

#140000
1aaaaa
b0 aaaac

#141000
0aaaaa

#142000
1aaaaa
b1 aaaac

#143000
0aaaaa

#144000
1aaaaa
b11 aaaac

#145000
0aaaaa

#146000
1aaaaa
b10 aaaac

#147000
0aaaaa

#148000
1aaaaa
b110 aaaac

#149000
0aaaaa

#150000
1aaaaa
b111 aaaac

#151000
0aaaaa

#152000
1aaaaa
b101 aaaac

#153000
0aaaaa

#154000
1aaaaa
b100 aaaac

#155000
0aaaaa

#156000
1aaaaa
b0 aaaac

#157000
0aaaaa

#158000
1aaaaa
b1 aaaac

#159000
0aaaaa

#160000
1aaaaa
b11 aaaac

#161000
0aaaaa

#162000
1aaaaa
b10 aaaac

#163000
0aaaaa

#164000
1aaaaa
b110 aaaac

#165000
0aaaaa

#166000
1aaaaa
b111 aaaac

#167000
0aaaaa

#168000
1aaaaa
b101 aaaac

#169000
0aaaaa

#170000
1aaaaa
b100 aaaac

#171000
0aaaaa

#172000
1aaaaa
b0 aaaac

#173000
0aaaaa

#174000
1aaaaa
b1 aaaac

#175000
0aaaaa

#176000
1aaaaa
b11 aaaac

#177000
0aaaaa

#178000
1aaaaa
b10 aaaac

#179000
0aaaaa

#180000
1aaaaa
b110 aaaac

#181000
0aaaaa

#182000
1aaaaa
b111 aaaac

#183000
0aaaaa

#184000
1aaaaa
b101 aaaac

#185000
0aaaaa

#186000
1aaaaa
b100 aaaac

#187000
0aaaaa

#188000
1aaaaa
b0 aaaac

#189000
0aaaaa

#190000
1aaaaa
b1 aaaac

#191000
0aaaaa

#192000
1aaaaa
b11 aaaac

#193000
0aaaaa

#194000
1aaaaa
b10 aaaac

#195000
0aaaaa

#196000
1aaaaa
b110 aaaac

#197000
0aaaaa

#198000
1aaaaa
b111 aaaac

#199000
0aaaaa

#200000
1aaaaa
b101 aaaac

#201000
0aaaaa

#202000
1aaaaa
b100 aaaac

#203000
0aaaaa

#204000
1aaaaa
b0 aaaac

#205000
0aaaaa

#206000
1aaaaa
b1 aaaac

#207000
0aaaaa

#208000
1aaaaa
b11 aaaac

#209000
0aaaaa

#210000
1aaaaa
b10 aaaac

#211000
0aaaaa

#212000
1aaaaa
b110 aaaac

#213000
0aaaaa

#214000
1aaaaa
b111 aaaac

#215000
0aaaaa

#216000
1aaaaa
b101 aaaac

#217000
0aaaaa

#218000
1aaaaa
b100 aaaac

#219000
0aaaaa

#220000
1aaaaa
b0 aaaac

#221000
0aaaaa

#222000
1aaaaa
b1 aaaac

#223000
0aaaaa

#224000
1aaaaa
b11 aaaac

#225000
0aaaaa

#226000
1aaaaa
b10 aaaac

#227000
0aaaaa

#228000
1aaaaa
b110 aaaac

#229000
0aaaaa

#230000
1aaaaa
b111 aaaac

#231000
0aaaaa

#232000
1aaaaa
b101 aaaac

#233000
0aaaaa

#234000
1aaaaa
b100 aaaac

#235000
0aaaaa

#236000
1aaaaa
b0 aaaac

#237000
0aaaaa

#238000
1aaaaa
b1 aaaac

#239000
0aaaaa

#240000
1aaaaa
b11 aaaac

#241000
0aaaaa

#242000
1aaaaa
b10 aaaac

#243000
0aaaaa

#244000
1aaaaa
b110 aaaac

#245000
0aaaaa

#246000
1aaaaa
b111 aaaac

#247000
0aaaaa

#248000
1aaaaa
b101 aaaac

#249000
0aaaaa

#250000
1aaaaa
b100 aaaac

#251000
0aaaaa

#252000
1aaaaa
b0 aaaac

#253000
0aaaaa

#254000
1aaaaa
b1 aaaac

#255000
0aaaaa

#256000
1aaaaa
b11 aaaac

#257000
0aaaaa

#258000
1aaaaa
b10 aaaac

#259000
0aaaaa

#260000
1aaaaa
b110 aaaac

#261000
0aaaaa

#262000
1aaaaa
b111 aaaac

#263000
0aaaaa

#264000
1aaaaa
b101 aaaac

#265000
0aaaaa

#266000
1aaaaa
b100 aaaac

#267000
0aaaaa

#268000
1aaaaa
b0 aaaac

#269000
0aaaaa

#270000
1aaaaa
b1 aaaac

#271000
0aaaaa

#272000
1aaaaa
b11 aaaac

#273000
0aaaaa

#274000
1aaaaa
b10 aaaac

#275000
0aaaaa

#276000
1aaaaa
b110 aaaac

#277000
0aaaaa

#278000
1aaaaa
b111 aaaac

#279000
0aaaaa

#280000
1aaaaa
b101 aaaac

#281000
0aaaaa

#282000
1aaaaa
b100 aaaac

#283000
0aaaaa

#284000
1aaaaa
b0 aaaac

#285000
0aaaaa

#286000
1aaaaa
b1 aaaac

#287000
0aaaaa

#288000
1aaaaa
b11 aaaac

#289000
0aaaaa

#290000
1aaaaa
b10 aaaac

#291000
0aaaaa

#292000
1aaaaa
b110 aaaac

#293000
0aaaaa

#294000
1aaaaa
b111 aaaac

#295000
0aaaaa

#296000
1aaaaa
b101 aaaac

#297000
0aaaaa

#298000
1aaaaa
b100 aaaac

#299000
0aaaaa

#300000
1aaaaa
b0 aaaac

#301000
0aaaaa

#302000
1aaaaa
b1 aaaac

#303000
0aaaaa

#304000
1aaaaa
b11 aaaac

#305000
0aaaaa

#306000
1aaaaa
b10 aaaac

#307000
0aaaaa

#308000
1aaaaa
b110 aaaac

#309000
0aaaaa

#310000
1aaaaa
b111 aaaac

#311000
0aaaaa

#312000
1aaaaa
b101 aaaac

#313000
0aaaaa

#314000
1aaaaa
b100 aaaac

#315000
0aaaaa

#316000
1aaaaa
b0 aaaac

#317000
0aaaaa

#318000
1aaaaa
b1 aaaac

#319000
0aaaaa

#320000
1aaaaa
b11 aaaac

#321000
0aaaaa

#322000
1aaaaa
b10 aaaac

#323000
0aaaaa

#324000
1aaaaa
b110 aaaac

#325000
0aaaaa

#326000
1aaaaa
b111 aaaac

#327000
0aaaaa

#328000
1aaaaa
b101 aaaac

#329000
0aaaaa

#330000
1aaaaa
b100 aaaac

#331000
0aaaaa

#332000
1aaaaa
b0 aaaac

#333000
0aaaaa

#334000
1aaaaa
b1 aaaac

#335000
0aaaaa

#336000
1aaaaa
b11 aaaac

#337000
0aaaaa

#338000
1aaaaa
b10 aaaac

#339000
0aaaaa

#340000
1aaaaa
b110 aaaac

#341000
0aaaaa

#342000
1aaaaa
b111 aaaac

#343000
0aaaaa

#344000
1aaaaa
b101 aaaac

#345000
0aaaaa

#346000
1aaaaa
b100 aaaac

#347000
0aaaaa

#348000
1aaaaa
b0 aaaac

#349000
0aaaaa

#350000
1aaaaa
b1 aaaac

#351000
0aaaaa

#352000
1aaaaa
b11 aaaac

#353000
0aaaaa

#354000
1aaaaa
b10 aaaac

#355000
0aaaaa

#356000
1aaaaa
b110 aaaac

#357000
0aaaaa

#358000
1aaaaa
b111 aaaac

#359000
0aaaaa

#360000
1aaaaa
b101 aaaac

#361000
0aaaaa

#362000
1aaaaa
b100 aaaac

#363000
0aaaaa

#364000
1aaaaa
b0 aaaac

#365000
0aaaaa

#366000
1aaaaa
b1 aaaac

#367000
0aaaaa

#368000
1aaaaa
b11 aaaac

#369000
0aaaaa

#370000
1aaaaa
b10 aaaac

#371000
0aaaaa

#372000
1aaaaa
b110 aaaac

#373000
0aaaaa

#374000
1aaaaa
b111 aaaac

#375000
0aaaaa

#376000
1aaaaa
b101 aaaac

#377000
0aaaaa

#378000
1aaaaa
b100 aaaac

#379000
0aaaaa

#380000
1aaaaa
b0 aaaac

#381000
0aaaaa

#382000
1aaaaa
b1 aaaac

#383000
0aaaaa

#384000
1aaaaa
b11 aaaac

#385000
0aaaaa

#386000
1aaaaa
b10 aaaac

#387000
0aaaaa

#388000
1aaaaa
b110 aaaac

#389000
0aaaaa

#390000
1aaaaa
b111 aaaac

#391000
0aaaaa

#392000
1aaaaa
b101 aaaac

#393000
0aaaaa

#394000
1aaaaa
b100 aaaac

#395000
0aaaaa

#396000
1aaaaa
b0 aaaac

#397000
0aaaaa

#398000
1aaaaa
b1 aaaac

#399000
0aaaaa

#400000
1aaaaa
b11 aaaac

#401000
0aaaaa

#402000
1aaaaa
b10 aaaac

#403000
0aaaaa

#404000
1aaaaa
b110 aaaac

#405000
0aaaaa

#406000
1aaaaa
b111 aaaac

#407000
0aaaaa

#408000
1aaaaa
b101 aaaac

#409000
0aaaaa

#410000
1aaaaa
b100 aaaac

#411000
0aaaaa

#412000
1aaaaa
b0 aaaac

#413000
0aaaaa

#414000
1aaaaa
b1 aaaac

#415000
0aaaaa

#416000
1aaaaa
b11 aaaac

#417000
0aaaaa

#418000
1aaaaa
b10 aaaac

#419000
0aaaaa

#420000
1aaaaa
b110 aaaac

#421000
0aaaaa

#422000
1aaaaa
b111 aaaac

#423000
0aaaaa

#424000
1aaaaa
b101 aaaac

#425000
0aaaaa

#426000
1aaaaa
b100 aaaac

#427000
0aaaaa

#428000
1aaaaa
b0 aaaac

#429000
0aaaaa

#430000
1aaaaa
b1 aaaac

#431000
0aaaaa

#432000
1aaaaa
b11 aaaac

#433000
0aaaaa

#434000
1aaaaa
b10 aaaac

#435000
0aaaaa

#436000
1aaaaa
b110 aaaac

#437000
0aaaaa

#438000
1aaaaa
b111 aaaac

#439000
0aaaaa

#440000
1aaaaa
b101 aaaac

#441000
0aaaaa

#442000
1aaaaa
b100 aaaac

#443000
0aaaaa

#444000
1aaaaa
b0 aaaac

#445000
0aaaaa

#446000
1aaaaa
b1 aaaac

#447000
0aaaaa

#448000
1aaaaa
b11 aaaac

#449000
0aaaaa

#450000
1aaaaa
b10 aaaac

#451000
0aaaaa

#452000
1aaaaa
b110 aaaac

#453000
0aaaaa

#454000
1aaaaa
b111 aaaac

#455000
0aaaaa

#456000
1aaaaa
b101 aaaac

#457000
0aaaaa

#458000
1aaaaa
b100 aaaac

#459000
0aaaaa

#460000
1aaaaa
b0 aaaac

#461000
0aaaaa

#462000
1aaaaa
b1 aaaac

#463000
0aaaaa

#464000
1aaaaa
b11 aaaac

#465000
0aaaaa

#466000
1aaaaa
b10 aaaac

#467000
0aaaaa

#468000
1aaaaa
b110 aaaac

#469000
0aaaaa

#470000
1aaaaa
b111 aaaac

#471000
0aaaaa

#472000
1aaaaa
b101 aaaac

#473000
0aaaaa

#474000
1aaaaa
b100 aaaac

#475000
0aaaaa

#476000
1aaaaa
b0 aaaac

#477000
0aaaaa

#478000
1aaaaa
b1 aaaac

#479000
0aaaaa

#480000
1aaaaa
b11 aaaac

#481000
0aaaaa

#482000
1aaaaa
b10 aaaac

#483000
0aaaaa

#484000
1aaaaa
b110 aaaac

#485000
0aaaaa

#486000
1aaaaa
b111 aaaac

#487000
0aaaaa

#488000
1aaaaa
b101 aaaac

#489000
0aaaaa

#490000
1aaaaa
b100 aaaac

#491000
0aaaaa

#492000
1aaaaa
b0 aaaac

#493000
0aaaaa

#494000
1aaaaa
b1 aaaac

#495000
0aaaaa

#496000
1aaaaa
b11 aaaac

#497000
0aaaaa

#498000
1aaaaa
b10 aaaac

#499000
0aaaaa

#500000
1aaaaa
b110 aaaac

#501000
0aaaaa

#502000
1aaaaa
b111 aaaac

#503000
0aaaaa

#504000
1aaaaa
b101 aaaac

#505000
0aaaaa

#506000
1aaaaa
b100 aaaac

#507000
0aaaaa

#508000
1aaaaa
b0 aaaac

#509000
0aaaaa

#510000
1aaaaa
b1 aaaac

#511000
0aaaaa

#512000
1aaaaa
b11 aaaac

#513000
0aaaaa

#514000
1aaaaa
b10 aaaac

#515000
0aaaaa

#516000
1aaaaa
b110 aaaac

#517000
0aaaaa

#518000
1aaaaa
b111 aaaac

#519000
0aaaaa

#520000
1aaaaa
b101 aaaac

#521000
0aaaaa

#522000
1aaaaa
b100 aaaac

#523000
0aaaaa

#524000
1aaaaa
b0 aaaac

#525000
0aaaaa

#526000
1aaaaa
b1 aaaac

#527000
0aaaaa

#528000
1aaaaa
b11 aaaac

#529000
0aaaaa

#530000
1aaaaa
b10 aaaac

#531000
0aaaaa

#532000
1aaaaa
b110 aaaac

#533000
0aaaaa

#534000
1aaaaa
b111 aaaac

#535000
0aaaaa

#536000
1aaaaa
b101 aaaac

#537000
0aaaaa

#538000
1aaaaa
b100 aaaac

#539000
0aaaaa

#540000
1aaaaa
b0 aaaac

#541000
0aaaaa

#542000
1aaaaa
b1 aaaac

#543000
0aaaaa

#544000
1aaaaa
b11 aaaac

#545000
0aaaaa

#546000
1aaaaa
b10 aaaac

#547000
0aaaaa

#548000
1aaaaa
b110 aaaac

#549000
0aaaaa

#550000
1aaaaa
b111 aaaac

#551000
0aaaaa

#552000
1aaaaa
b101 aaaac

#553000
0aaaaa

#554000
1aaaaa
b100 aaaac

#555000
0aaaaa

#556000
1aaaaa
b0 aaaac

#557000
0aaaaa

#558000
1aaaaa
b1 aaaac

#559000
0aaaaa

#560000
1aaaaa
b11 aaaac

#561000
0aaaaa

#562000
1aaaaa
b10 aaaac

#563000
0aaaaa

#564000
1aaaaa
b110 aaaac

#565000
0aaaaa

#566000
1aaaaa
b111 aaaac

#567000
0aaaaa

#568000
1aaaaa
b101 aaaac

#569000
0aaaaa

#570000
1aaaaa
b100 aaaac

#571000
0aaaaa

#572000
1aaaaa
b0 aaaac

#573000
0aaaaa

#574000
1aaaaa
b1 aaaac

#575000
0aaaaa

#576000
1aaaaa
b11 aaaac

#577000
0aaaaa

#578000
1aaaaa
b10 aaaac

#579000
0aaaaa

#580000
1aaaaa
b110 aaaac

#581000
0aaaaa

#582000
1aaaaa
b111 aaaac

#583000
0aaaaa

#584000
1aaaaa
b101 aaaac

#585000
0aaaaa

#586000
1aaaaa
b100 aaaac

#587000
0aaaaa

#588000
1aaaaa
b0 aaaac

#589000
0aaaaa

#590000
1aaaaa
b1 aaaac

#591000
0aaaaa

#592000
1aaaaa
b11 aaaac

#593000
0aaaaa

#594000
1aaaaa
b10 aaaac

#595000
0aaaaa

#596000
1aaaaa
b110 aaaac

#597000
0aaaaa

#598000
1aaaaa
b111 aaaac

#599000
0aaaaa

#600000
1aaaaa
b101 aaaac

#601000
0aaaaa

#602000
1aaaaa
b100 aaaac

#603000
0aaaaa

#604000
1aaaaa
b0 aaaac

#605000
0aaaaa

#606000
1aaaaa
b1 aaaac

#607000
0aaaaa

#608000
1aaaaa
b11 aaaac

#609000
0aaaaa

#610000
1aaaaa
b10 aaaac

#611000
0aaaaa

#612000
1aaaaa
b110 aaaac

#613000
0aaaaa

#614000
1aaaaa
b111 aaaac

#615000
0aaaaa

#616000
1aaaaa
b101 aaaac

#617000
0aaaaa

#618000
1aaaaa
b100 aaaac

#619000
0aaaaa

#620000
1aaaaa
b0 aaaac

#621000
0aaaaa

#622000
1aaaaa
b1 aaaac

#623000
0aaaaa

#624000
1aaaaa
b11 aaaac

#625000
0aaaaa

#626000
1aaaaa
b10 aaaac

#627000
0aaaaa

#628000
1aaaaa
b110 aaaac

#629000
0aaaaa

#630000
1aaaaa
b111 aaaac

#631000
0aaaaa

#632000
1aaaaa
b101 aaaac

#633000
0aaaaa

#634000
1aaaaa
b100 aaaac

#635000
0aaaaa

#636000
1aaaaa
b0 aaaac

#637000
0aaaaa

#638000
1aaaaa
b1 aaaac

#639000
0aaaaa

#640000
1aaaaa
b11 aaaac

#641000
0aaaaa

#642000
1aaaaa
b10 aaaac

#643000
0aaaaa

#644000
1aaaaa
b110 aaaac

#645000
0aaaaa

#646000
1aaaaa
b111 aaaac

#647000
0aaaaa

#648000
1aaaaa
b101 aaaac

#649000
0aaaaa

#650000
1aaaaa
b100 aaaac

#651000
0aaaaa

#652000
1aaaaa
b0 aaaac

#653000
0aaaaa

#654000
1aaaaa
b1 aaaac

#655000
0aaaaa

#656000
1aaaaa
b11 aaaac

#657000
0aaaaa

#658000
1aaaaa
b10 aaaac

#659000
0aaaaa

#660000
1aaaaa
b110 aaaac

#661000
0aaaaa

#662000
1aaaaa
b111 aaaac

#663000
0aaaaa

#664000
1aaaaa
b101 aaaac

#665000
0aaaaa

#666000
1aaaaa
b100 aaaac

#667000
0aaaaa

#668000
1aaaaa
b0 aaaac

#669000
0aaaaa

#670000
1aaaaa
b1 aaaac

#671000
0aaaaa

#672000
1aaaaa
b11 aaaac

#673000
0aaaaa

#674000
1aaaaa
b10 aaaac

#675000
0aaaaa

#676000
1aaaaa
b110 aaaac

#677000
0aaaaa

#678000
1aaaaa
b111 aaaac

#679000
0aaaaa

#680000
1aaaaa
b101 aaaac

#681000
0aaaaa

#682000
1aaaaa
b100 aaaac

#683000
0aaaaa

#684000
1aaaaa
b0 aaaac

#685000
0aaaaa

#686000
1aaaaa
b1 aaaac

#687000
0aaaaa

#688000
1aaaaa
b11 aaaac

#689000
0aaaaa

#690000
1aaaaa
b10 aaaac

#691000
0aaaaa

#692000
1aaaaa
b110 aaaac

#693000
0aaaaa

#694000
1aaaaa
b111 aaaac

#695000
0aaaaa

#696000
1aaaaa
b101 aaaac

#697000
0aaaaa

#698000
1aaaaa
b100 aaaac

#699000
0aaaaa

#700000
1aaaaa
b0 aaaac

#701000
0aaaaa

#702000
1aaaaa
b1 aaaac

#703000
0aaaaa

#704000
1aaaaa
b11 aaaac

#705000
0aaaaa

#706000
1aaaaa
b10 aaaac

#707000
0aaaaa

#708000
1aaaaa
b110 aaaac

#709000
0aaaaa

#710000
1aaaaa
b111 aaaac

#711000
0aaaaa

#712000
1aaaaa
b101 aaaac

#713000
0aaaaa

#714000
1aaaaa
b100 aaaac

#715000
0aaaaa

#716000
1aaaaa
b0 aaaac

#717000
0aaaaa

#718000
1aaaaa
b1 aaaac

#719000
0aaaaa

#720000
1aaaaa
b11 aaaac

#721000
0aaaaa

#722000
1aaaaa
b10 aaaac

#723000
0aaaaa

#724000
1aaaaa
b110 aaaac

#725000
0aaaaa

#726000
1aaaaa
b111 aaaac

#727000
0aaaaa

#728000
1aaaaa
b101 aaaac

#729000
0aaaaa

#730000
1aaaaa
b100 aaaac

#731000
0aaaaa

#732000
1aaaaa
b0 aaaac

#733000
0aaaaa

#734000
1aaaaa
b1 aaaac

#735000
0aaaaa

#736000
1aaaaa
b11 aaaac

#737000
0aaaaa

#738000
1aaaaa
b10 aaaac

#739000
0aaaaa

#740000
1aaaaa
b110 aaaac

#741000
0aaaaa

#742000
1aaaaa
b111 aaaac

#743000
0aaaaa

#744000
1aaaaa
b101 aaaac

#745000
0aaaaa

#746000
1aaaaa
b100 aaaac

#747000
0aaaaa

#748000
1aaaaa
b0 aaaac

#749000
0aaaaa

#750000
1aaaaa
b1 aaaac

#751000
0aaaaa

#752000
1aaaaa
b11 aaaac

#753000
0aaaaa

#754000
1aaaaa
b10 aaaac

#755000
0aaaaa

#756000
1aaaaa
b110 aaaac

#757000
0aaaaa

#758000
1aaaaa
b111 aaaac

#759000
0aaaaa

#760000
1aaaaa
b101 aaaac

#761000
0aaaaa

#762000
1aaaaa
b100 aaaac

#763000
0aaaaa

#764000
1aaaaa
b0 aaaac

#765000
0aaaaa

#766000
1aaaaa
b1 aaaac

#767000
0aaaaa

#768000
1aaaaa
b11 aaaac

#769000
0aaaaa

#770000
1aaaaa
b10 aaaac

#771000
0aaaaa

#772000
1aaaaa
b110 aaaac

#773000
0aaaaa

#774000
1aaaaa
b111 aaaac

#775000
0aaaaa

#776000
1aaaaa
b101 aaaac

#777000
0aaaaa

#778000
1aaaaa
b100 aaaac

#779000
0aaaaa

#780000
1aaaaa
b0 aaaac

#781000
0aaaaa

#782000
1aaaaa
b1 aaaac

#783000
0aaaaa

#784000
1aaaaa
b11 aaaac

#785000
0aaaaa

#786000
1aaaaa
b10 aaaac

#787000
0aaaaa

#788000
1aaaaa
b110 aaaac

#789000
0aaaaa

#790000
1aaaaa
b111 aaaac

#791000
0aaaaa

#792000
1aaaaa
b101 aaaac

#793000
0aaaaa

#794000
1aaaaa
b100 aaaac

#795000
0aaaaa

#796000
1aaaaa
b0 aaaac

#797000
0aaaaa

#798000
1aaaaa
b1 aaaac

#799000
0aaaaa

#800000
1aaaaa
b11 aaaac

#801000
0aaaaa

#802000
1aaaaa
b10 aaaac

#803000
0aaaaa

#804000
1aaaaa
b110 aaaac

#805000
0aaaaa

#806000
1aaaaa
b111 aaaac

#807000
0aaaaa

#808000
1aaaaa
b101 aaaac

#809000
0aaaaa

#810000
1aaaaa
b100 aaaac

#811000
0aaaaa

#812000
1aaaaa
b0 aaaac

#813000
0aaaaa

#814000
1aaaaa
b1 aaaac

#815000
0aaaaa

#816000
1aaaaa
b11 aaaac

#817000
0aaaaa

#818000
1aaaaa
b10 aaaac

#819000
0aaaaa

#820000
1aaaaa
b110 aaaac

#821000
0aaaaa

#822000
1aaaaa
b111 aaaac

#823000
0aaaaa

#824000
1aaaaa
b101 aaaac

#825000
0aaaaa

#826000
1aaaaa
b100 aaaac

#827000
0aaaaa

#828000
1aaaaa
b0 aaaac

#829000
0aaaaa

#830000
1aaaaa
b1 aaaac

#831000
0aaaaa

#832000
1aaaaa
b11 aaaac

#833000
0aaaaa

#834000
1aaaaa
b10 aaaac

#835000
0aaaaa

#836000
1aaaaa
b110 aaaac

#837000
0aaaaa

#838000
1aaaaa
b111 aaaac

#839000
0aaaaa

#840000
1aaaaa
b101 aaaac

#841000
0aaaaa

#842000
1aaaaa
b100 aaaac

#843000
0aaaaa

#844000
1aaaaa
b0 aaaac

#845000
0aaaaa

#846000
1aaaaa
b1 aaaac

#847000
0aaaaa

#848000
1aaaaa
b11 aaaac

#849000
0aaaaa

#850000
1aaaaa
b10 aaaac

#851000
0aaaaa

#852000
1aaaaa
b110 aaaac

#853000
0aaaaa

#854000
1aaaaa
b111 aaaac

#855000
0aaaaa

#856000
1aaaaa
b101 aaaac

#857000
0aaaaa

#858000
1aaaaa
b100 aaaac

#859000
0aaaaa

#860000
1aaaaa
b0 aaaac

#861000
0aaaaa

#862000
1aaaaa
b1 aaaac

#863000
0aaaaa

#864000
1aaaaa
b11 aaaac

#865000
0aaaaa

#866000
1aaaaa
b10 aaaac

#867000
0aaaaa

#868000
1aaaaa
b110 aaaac

#869000
0aaaaa

#870000
1aaaaa
b111 aaaac

#871000
0aaaaa

#872000
1aaaaa
b101 aaaac

#873000
0aaaaa

#874000
1aaaaa
b100 aaaac

#875000
0aaaaa

#876000
1aaaaa
b0 aaaac

#877000
0aaaaa

#878000
1aaaaa
b1 aaaac

#879000
0aaaaa

#880000
1aaaaa
b11 aaaac

#881000
0aaaaa

#882000
1aaaaa
b10 aaaac

#883000
0aaaaa

#884000
1aaaaa
b110 aaaac

#885000
0aaaaa

#886000
1aaaaa
b111 aaaac

#887000
0aaaaa

#888000
1aaaaa
b101 aaaac

#889000
0aaaaa

#890000
1aaaaa
b100 aaaac

#891000
0aaaaa

#892000
1aaaaa
b0 aaaac

#893000
0aaaaa

#894000
1aaaaa
b1 aaaac

#895000
0aaaaa

#896000
1aaaaa
b11 aaaac

#897000
0aaaaa

#898000
1aaaaa
b10 aaaac

#899000
0aaaaa

#900000
1aaaaa
b110 aaaac

#901000
0aaaaa

#902000
1aaaaa
b111 aaaac

#903000
0aaaaa

#904000
1aaaaa
b101 aaaac

#905000
0aaaaa

#906000
1aaaaa
b100 aaaac

#907000
0aaaaa

#908000
1aaaaa
b0 aaaac

#909000
0aaaaa

#910000
1aaaaa
b1 aaaac

#911000
0aaaaa

#912000
1aaaaa
b11 aaaac

#913000
0aaaaa

#914000
1aaaaa
b10 aaaac

#915000
0aaaaa

#916000
1aaaaa
b110 aaaac

#917000
0aaaaa

#918000
1aaaaa
b111 aaaac

#919000
0aaaaa

#920000
1aaaaa
b101 aaaac

#921000
0aaaaa

#922000
1aaaaa
b100 aaaac

#923000
0aaaaa

#924000
1aaaaa
b0 aaaac

#925000
0aaaaa

#926000
1aaaaa
b1 aaaac

#927000
0aaaaa

#928000
1aaaaa
b11 aaaac

#929000
0aaaaa

#930000
1aaaaa
b10 aaaac

#931000
0aaaaa

#932000
1aaaaa
b110 aaaac

#933000
0aaaaa

#934000
1aaaaa
b111 aaaac

#935000
0aaaaa

#936000
1aaaaa
b101 aaaac

#937000
0aaaaa

#938000
1aaaaa
b100 aaaac

#939000
0aaaaa

#940000
1aaaaa
b0 aaaac

#941000
0aaaaa

#942000
1aaaaa
b1 aaaac

#943000
0aaaaa

#944000
1aaaaa
b11 aaaac

#945000
0aaaaa

#946000
1aaaaa
b10 aaaac

#947000
0aaaaa

#948000
1aaaaa
b110 aaaac

#949000
0aaaaa

#950000
1aaaaa
b111 aaaac

#951000
0aaaaa

#952000
1aaaaa
b101 aaaac

#953000
0aaaaa

#954000
1aaaaa
b100 aaaac

#955000
0aaaaa

#956000
1aaaaa
b0 aaaac

#957000
0aaaaa

#958000
1aaaaa
b1 aaaac

#959000
0aaaaa

#960000
1aaaaa
b11 aaaac

#961000
0aaaaa

#962000
1aaaaa
b10 aaaac

#963000
0aaaaa

#964000
1aaaaa
b110 aaaac

#965000
0aaaaa

#966000
1aaaaa
b111 aaaac

#967000
0aaaaa

#968000
1aaaaa
b101 aaaac

#969000
0aaaaa

#970000
1aaaaa
b100 aaaac

#971000
0aaaaa

#972000
1aaaaa
b0 aaaac

#973000
0aaaaa

#974000
1aaaaa
b1 aaaac

#975000
0aaaaa

#976000
1aaaaa
b11 aaaac

#977000
0aaaaa

#978000
1aaaaa
b10 aaaac

#979000
0aaaaa

#980000
1aaaaa
b110 aaaac

#981000
0aaaaa

#982000
1aaaaa
b111 aaaac

#983000
0aaaaa

#984000
1aaaaa
b101 aaaac

#985000
0aaaaa

#986000
1aaaaa
b100 aaaac

#987000
0aaaaa

